Seurat - Guided Clustering Tutorial
…
                      p_val avg_log2FC pct.1 pct.2     p_val_adj
FCGR3A        8.246578e-205   6.794969 0.975 0.040 1.130936e-200
IFITM3        1.677613e-195   6.192558 0.975 0.049 2.300678e-191
CFD           2.401156e-193   6.015172 0.938 0.038 3.292945e-189
CD68          2.900384e-191   5.530330 0.926 0.035 3.977587e-187
RP11-290F20.3 2.513244e-186   6.297999 0.840 0.017 3.446663e-182

# find markers for every cluster compared to all remaining cells, report only the positive
# ones
pbmc.markers <- FindAllMarkers(pbmc, only.pos = TRUE)
pbmc.markers %>%
    group_by(cluster) %>%
    dplyr::filter(avg_log2FC > 1)

# A tibble: 7,019 × 7
# Groups:   cluster [9]
       p_val avg_log2FC pct.1 pct.2 p_val_adj cluster gene     
       <dbl>      <dbl> <dbl> <dbl>     <dbl> <fct>   <chr>    
 1 3.75e-112       1.21 0.912 0.592 5.14e-108 0       LDHB     
 2 9.57e- 88       2.40 0.447 0.108 1.31e- 83 0       CCR7     
 3 1.15e- 76       1.06 0.845 0.406 1.58e- 72 0       CD3D     
 4 1.12e- 54       1.04 0.731 0.4   1.54e- 50 0       CD3E     
 5 1.35e- 51       2.14 0.342 0.103 1.86e- 47 0       LEF1     
 6 1.94e- 47       1.20 0.629 0.359 2.66e- 43 0       NOSIP    
 7 2.81e- 44       1.53 0.443 0.185 3.85e- 40 0       PIK3IP1  
 8 6.27e- 43       1.99 0.33  0.112 8.60e- 39 0       PRKCQ-AS1
 9 1.16e- 40       2.70 0.2   0.04  1.59e- 36 0       FHIT     
10 1.34e- 34       1.96 0.268 0.087 1.84e- 30 0       MAL      
# ℹ 7,009 more rows
…
